…
``` r
world_map <- map_data("world") %>% filter(region != "Antarctica")
boreal_map <- world_map %>% filter(lat > 10 & lat < 75, long > -130 & long < 145)

(example_TEs <- tes_clean %>% filter(name %in% c("PPI251","ATCOPIA45")) %>% filter(lat > 10 & lat < 75, lon > -130 & lon < 145) %>% mutate(species = ifelse(species=="D. melanogaster", "P-element - D. melanogaster", "Copia45 - A. thaliana")))
```

    ## # A tibble: 1,722 × 12
    ## # Groups:   species, name [2]
    ##    sample      name  copynumber species   lat   lon location study_id AdMixGroup
    ##    <chr>       <chr>      <dbl> <chr>   <dbl> <dbl> <chr>    <chr>    <chr>     
    ##  1 SRR14308759 PPI2…      14.1  P-elem…    42   -71 Provide… Kapun20… <NA>      
    ##  2 SRR14308760 PPI2…      15.8  P-elem…    42   -71 Provide… Kapun20… <NA>      
    ##  3 SRR14308761 PPI2…      17.4  P-elem…    42   -71 Provide… Kapun20… <NA>      
    ##  4 SRR14308762 PPI2…      16.3  P-elem…    42   -71 Provide… Kapun20… <NA>      
    ##  5 SRR14308763 PPI2…       6.24 P-elem…    42   -71 Provide… Kapun20… <NA>      
    ##  6 SRR14308764 PPI2…       4.11 P-elem…    42   -71 Provide… Kapun20… <NA>      
    ##  7 SRR14308765 PPI2…       4.05 P-elem…    42   -71 Provide… Kapun20… <NA>      
    ##  8 SRR14308766 PPI2…       3.95 P-elem…    42   -71 Provide… Kapun20… <NA>      
    ##  9 SRR14308767 PPI2…      15.3  P-elem…    42   -71 Provide… Kapun20… <NA>      
    ## 10 SRR14308768 PPI2…      15.9  P-elem…    42   -71 Provide… Kapun20… <NA>      
    ## # ℹ 1,712 more rows
    ## # ℹ 3 more variables: presence <chr>, te_absent_in <int>, te_present_in <int>
…
``` r
(GD <- read_tsv("/Volumes/Storage/ara-droso/metadata/gdcandscomp.tsv") %>% rename(species = Species) %>% mutate(species = ifelse(species=="A.thaliana", "A. thaliana", "D. melanogaster")))
```

    ## Rows: 56 Columns: 5
    ## ── Column specification ────────────────────────────────────────────────────────
    ## Delimiter: "\t"
    ## chr (1): Species
    ## dbl (4): acc, new_fams, tot_fam, pos
    ## 
    ## ℹ Use `spec()` to retrieve the full column specification for this data.
    ## ℹ Specify the column types or set `show_col_types = FALSE` to quiet this message.

    ## # A tibble: 56 × 5
    ##      acc new_fams tot_fam species       pos
    ##    <dbl>    <dbl>   <dbl> <chr>       <dbl>
    ##  1     0        0       0 A. thaliana     0
    ##  2 10002        4       4 A. thaliana     1
    ##  3 10015        2       6 A. thaliana     2
    ##  4 10024        6      12 A. thaliana     3
    ##  5  1741        1      13 A. thaliana     4
    ##  6 22001        1      14 A. thaliana     5
    ##  7 22002        4      18 A. thaliana     6
    ##  8 22003        2      20 A. thaliana     7
    ##  9 22004        2      22 A. thaliana     8
    ## 10 22005        8      30 A. thaliana     9
    ## # ℹ 46 more rows
…
