…
``` r
(data <- read_tsv("/Volumes/Storage/ara-droso/data-patchyness/selected/combined_raw.tsv") %>% inner_join(species_metadata, by="species") %>% mutate(sample = str_extract(sample, "[^/]+$")) %>% mutate(sample = gsub(".fastq.sort.deviate", "", sample)) %>% left_join(dmel_metadata, by="sample"))
```

    ## Rows: 6546046 Columns: 7
    ## ── Column specification ────────────────────────────────────────────────────────
    ## Delimiter: "\t"
    ## chr (4): species, sample, type, name
    ## dbl (3): len, raw, copynumber
    ## 
    ## ℹ Use `spec()` to retrieve the full column specification for this data.
    ## ℹ Specify the column types or set `show_col_types = FALSE` to quiet this message.

    ## # A tibble: 6,546,046 × 28
    ##    species sample type  name    len    raw copynumber genus spec  kingdom phylum
    ##    <chr>   <chr>  <chr> <chr> <dbl>  <dbl>      <dbl> <chr> <chr> <chr>   <chr> 
    ##  1 A.colu… ERR16… scg   Dus4   7521  502.       1.39  Anop… colu… Animal… Arthr…
    ##  2 A.colu… ERR16… scg   RnrL   3435  125.       0.758 Anop… colu… Animal… Arthr…
    ##  3 A.colu… ERR16… scg   veli   1685   68.5      0.848 Anop… colu… Animal… Arthr…
    ##  4 A.colu… ERR16… te    rnd-… 11219 9171.      17.1   Anop… colu… Animal… Arthr…
    ##  5 A.colu… ERR16… te    rnd-… 15260 7600.      10.4   Anop… colu… Animal… Arthr…
    ##  6 A.colu… ERR16… te    rnd-…  7459 3813.      10.7   Anop… colu… Animal… Arthr…
    ##  7 A.colu… ERR16… te    rnd-…  7021 5407.      16.1   Anop… colu… Animal… Arthr…
    ##  8 A.colu… ERR16… te    rnd-…  1100 1396.      26.5   Anop… colu… Animal… Arthr…
    ##  9 A.colu… ERR16… te    rnd-…  4703 5034.      22.3   Anop… colu… Animal… Arthr…
    ## 10 A.colu… ERR16… te    rnd-…  5158  833.       3.37  Anop… colu… Animal… Arthr…
    ## # ℹ 6,546,036 more rows
    ## # ℹ 17 more variables: group <chr>, silencing_spread <chr>,
    ## #   recent_selfin_history <lgl>, selfin_rate <chr>, absent_tes <chr>,
    ## #   n_data <dbl>, `data_source(s)` <chr>, status <lgl>, miner <chr>,
    ## #   strain <chr>, publication <chr>, study <chr>, study_id <chr>, year <dbl>,
    ## #   location <chr>, lat <dbl>, lon <dbl>

``` r
data %>% select(species) %>% distinct()
```

    ## # A tibble: 21 × 1
    ##    species       
    ##    <chr>         
    ##  1 A.coluzzii    
    ##  2 A.lyrata      
    ##  3 A.thaliana    
    ##  4 Aquilegia     
    ##  5 C.elegans     
    ##  6 C.grandiflora 
    ##  7 C.rubella     
    ##  8 D.melanogaster
    ##  9 D.sechellia   
    ## 10 E.guttata     
    ## # ℹ 11 more rows
…
